Heading 1,Heading 2,Heading 3,Heading 4,Heading 5
Data 1-0,Data 2-0,Data 3-0,Data 4-0,Data 5-0
Data 1-1,Data 2-1,Data 3-1,Data 4-1,Data 5-1
Data 1-2,Data 2-2,Data 3-2,Data 4-2,Data 5-2
Data 1-3,Data 2-3,Data 3-3,Data 4-3,Data 5-3
Data 1-4,Data 2-4,Data 3-4,Data 4-4,Data 5-4
Data 1-5,Data 2-5,Data 3-5,Data 4-5,Data 5-5
Data 1-6,Data 2-6,Data 3-6,Data 4-6,Data 5-6
Data 1-7,Data 2-7,Data 3-7,Data 4-7,Data 5-7
Data 1-8,Data 2-8,Data 3-8,Data 4-8,Data 5-8
Data 1-9,Data 2-9,Data 3-9,Data 4-9,Data 5-9